sim/tb_accelerator_top.vcd
$date
	Thu Mar 19 21:42:08 2026
$end
$version
	Icarus Verilog
$end
$timescale
	1ps
$end
$scope module tb_accelerator_top $end
$var wire 1 ! result_ready $end
$var wire 1 " result_rd_valid $end
$var wire 32 # result_rd_data [31:0] $end
$var wire 32 $ perf_total_macs [31:0] $end
$var wire 32 % perf_cycle_count [31:0] $end
$var wire 32 & perf_compute_cycles [31:0] $end
$var wire 1 ' done $end
$var wire 1 ( busy $end
$var parameter 32 ) ACC_WIDTH $end
$var parameter 32 * ARRAY_SIZE $end
$var parameter 32 + CLK_PERIOD $end
$var parameter 32 , DATA_WIDTH $end
$var parameter 32 - MAX_DIM $end
$var reg 1 . clk $end
$var reg 2 / data_wr_col [1:0] $end
$var reg 1 0 data_wr_en $end
$var reg 2 1 data_wr_row [1:0] $end
$var reg 1 2 data_wr_sel $end
$var reg 8 3 data_wr_val [7:0] $end
$var reg 5 4 mat_dim [4:0] $end
$var reg 2 5 result_rd_col [1:0] $end
$var reg 1 6 result_rd_en $end
$var reg 2 7 result_rd_row [1:0] $end
$var reg 1 8 rst_n $end
$var reg 1 9 start $end
$var integer 32 : end_time [31:0] $end
$var integer 32 ; i [31:0] $end
$var integer 32 < j [31:0] $end
$var integer 32 = k [31:0] $end
$var integer 32 > start_time [31:0] $end
$var integer 32 ? test_fail [31:0] $end
$var integer 32 @ test_pass [31:0] $end
$scope module dut $end
$var wire 1 . clk $end
$var wire 2 A data_wr_col [1:0] $end
$var wire 1 0 data_wr_en $end
$var wire 2 B data_wr_row [1:0] $end
$var wire 1 2 data_wr_sel $end
$var wire 8 C data_wr_val [7:0] $end
$var wire 5 D mat_dim [4:0] $end
$var wire 2 E result_rd_col [1:0] $end
$var wire 1 6 result_rd_en $end
$var wire 2 F result_rd_row [1:0] $end
$var wire 1 8 rst_n $end
$var wire 1 9 start $end
$var wire 512 G sa_result [511:0] $end
$var wire 1 ! result_ready $end
$var wire 1 " result_rd_valid $end
$var wire 32 H result_rd_data [31:0] $end
$var wire 32 I perf_total_macs [31:0] $end
$var wire 32 J perf_cycle_count [31:0] $end
$var wire 32 K perf_compute_cycles [31:0] $end
$var wire 1 ' done $end
$var wire 1 L ctrl_sa_en $end
$var wire 1 M ctrl_sa_clear_acc $end
$var wire 1 N ctrl_obuf_wr_en $end
$var wire 2 O ctrl_buf_b_wr_row [1:0] $end
$var wire 1 P ctrl_buf_b_wr_en $end
$var wire 2 Q ctrl_buf_b_wr_col [1:0] $end
$var wire 1 R ctrl_buf_b_rd_start $end
$var wire 1 S ctrl_buf_b_rd_en $end
$var wire 2 T ctrl_buf_a_wr_row [1:0] $end
$var wire 1 U ctrl_buf_a_wr_en $end
$var wire 2 V ctrl_buf_a_wr_col [1:0] $end
$var wire 1 W ctrl_buf_a_rd_start $end
$var wire 1 X ctrl_buf_a_rd_en $end
$var wire 1 ( busy $end
$var wire 2 Y buf_b_wr_row_mux [1:0] $end
$var wire 1 Z buf_b_wr_en_mux $end
$var wire 2 [ buf_b_wr_col_mux [1:0] $end
$var wire 1 \ buf_b_valid $end
$var wire 32 ] buf_b_data [31:0] $end
$var wire 2 ^ buf_a_wr_row_mux [1:0] $end
$var wire 1 _ buf_a_wr_en_mux $end
$var wire 2 ` buf_a_wr_col_mux [1:0] $end
$var wire 1 a buf_a_valid $end
$var wire 32 b buf_a_data [31:0] $end
$var parameter 32 c ACC_WIDTH $end
$var parameter 32 d ARRAY_SIZE $end
$var parameter 32 e DATA_WIDTH $end
$var parameter 32 f MAX_DIM $end
$scope module u_controller $end
$var wire 1 . clk $end
$var wire 5 g mat_dim [4:0] $end
$var wire 1 8 rst_n $end
$var wire 1 9 start $end
$var parameter 32 h ACC_WIDTH $end
$var parameter 32 i ARRAY_SIZE $end
$var parameter 32 j DATA_WIDTH $end
$var parameter 32 k DRAIN_CYCLES $end
$var parameter 34 l FEED_CYCLES $end
$var parameter 32 m MAX_DIM $end
$var parameter 32 n SKIP_LOAD $end
$var parameter 4 o S_COMPUTE $end
$var parameter 4 p S_DONE $end
$var parameter 4 q S_DRAIN $end
$var parameter 4 r S_FEED $end
$var parameter 4 s S_IDLE $end
$var parameter 4 t S_INIT $end
$var parameter 4 u S_LOAD_A $end
$var parameter 4 v S_LOAD_B $end
$var parameter 4 w S_STORE $end
$var parameter 4 x S_TILE_NEXT $end
$var parameter 32 y TILE_SIZE $end
$var reg 1 X buf_a_rd_en $end
$var reg 1 W buf_a_rd_start $end
$var reg 2 z buf_a_wr_col [1:0] $end
$var reg 1 U buf_a_wr_en $end
$var reg 2 { buf_a_wr_row [1:0] $end
$var reg 1 S buf_b_rd_en $end
$var reg 1 R buf_b_rd_start $end
$var reg 2 | buf_b_wr_col [1:0] $end
$var reg 1 P buf_b_wr_en $end
$var reg 2 } buf_b_wr_row [1:0] $end
$var reg 1 ( busy $end
$var reg 4 ~ compute_count [3:0] $end
$var reg 32 !" compute_cycles [31:0] $end
$var reg 32 "" cycle_count [31:0] $end
$var reg 1 ' done $end
$var reg 4 #" feed_count [3:0] $end
$var reg 3 $" load_col_count [2:0] $end
$var reg 3 %" load_row_count [2:0] $end
$var reg 4 &" next_state [3:0] $end
$var reg 5 '" num_tiles [4:0] $end
$var reg 1 N obuf_wr_en $end
$var reg 1 M sa_clear_acc $end
$var reg 1 L sa_en $end
$var reg 3 (" skip_delay [2:0] $end
$var reg 4 )" state [3:0] $end
$var reg 5 *" tile_col [4:0] $end
$var reg 5 +" tile_k [4:0] $end
$var reg 5 ," tile_row [4:0] $end
$var reg 32 -" total_macs [31:0] $end
$upscope $end
$scope module u_input_buf_a $end
$var wire 1 . clk $end
$var wire 1 X rd_en $end
$var wire 1 W rd_start $end
$var wire 1 8 rst_n $end
$var wire 2 ." wr_col [1:0] $end
$var wire 8 /" wr_data [7:0] $end
$var wire 1 _ wr_en $end
$var wire 2 0" wr_row [1:0] $end
$var parameter 32 1" ARRAY_SIZE $end
$var parameter 32 2" DATA_WIDTH $end
$var parameter 32 3" DEPTH $end
$var parameter 34 4" TOTAL_CYCLES $end
$var reg 1 5" active $end
$var reg 3 6" cycle_count [2:0] $end
$var reg 32 7" rd_data [31:0] $end
$var reg 1 8" rd_start_d $end
$var reg 1 a rd_valid $end
$var integer 32 9" idx [31:0] $end
$upscope $end
$scope module u_input_buf_b $end
$var wire 1 . clk $end
$var wire 1 S rd_en $end
$var wire 1 R rd_start $end
$var wire 1 8 rst_n $end
$var wire 2 :" wr_col [1:0] $end
$var wire 8 ;" wr_data [7:0] $end
$var wire 1 Z wr_en $end
$var wire 2 <" wr_row [1:0] $end
$var parameter 32 =" ARRAY_SIZE $end
$var parameter 32 >" DATA_WIDTH $end
$var parameter 32 ?" DEPTH $end
$var parameter 34 @" TOTAL_CYCLES $end
$var reg 1 A" active $end
$var reg 3 B" cycle_count [2:0] $end
$var reg 32 C" rd_data [31:0] $end
$var reg 1 D" rd_start_d $end
$var reg 1 \ rd_valid $end
$var integer 32 E" idx [31:0] $end
$upscope $end
$scope module u_output_buf $end
$var wire 1 . clk $end
$var wire 2 F" rd_col [1:0] $end
$var wire 1 6 rd_en $end
$var wire 2 G" rd_row [1:0] $end
$var wire 1 8 rst_n $end
$var wire 1 N wr_en $end
$var wire 512 H" wr_data [511:0] $end
$var parameter 32 I" ACC_WIDTH $end
$var parameter 32 J" ARRAY_SIZE $end
$var reg 1 ! buf_ready $end
$var reg 32 K" rd_data [31:0] $end
$var reg 1 " rd_valid $end
$var integer 32 L" i [31:0] $end
$var integer 32 M" j [31:0] $end
$upscope $end
$scope module u_systolic_array $end
$var wire 32 N" a_in [31:0] $end
$var wire 32 O" b_in [31:0] $end
$var wire 1 M clear_acc $end
$var wire 1 . clk $end
$var wire 1 L en $end
$var wire 1 8 rst_n $end
$var wire 512 P" result [511:0] $end
$var parameter 32 Q" ACC_WIDTH $end
$var parameter 32 R" ARRAY_SIZE $end
$var parameter 32 S" DATA_WIDTH $end
$scope begin gen_a_input[0] $end
$var parameter 2 T" i $end
$upscope $end
$scope begin gen_a_input[1] $end
$var parameter 2 U" i $end
$upscope $end
$scope begin gen_a_input[2] $end
$var parameter 3 V" i $end
$upscope $end
$scope begin gen_a_input[3] $end
$var parameter 3 W" i $end
$upscope $end
$scope begin gen_b_input[0] $end
$var parameter 2 X" j $end
$upscope $end
$scope begin gen_b_input[1] $end
$var parameter 2 Y" j $end
$upscope $end
$scope begin gen_b_input[2] $end
$var parameter 3 Z" j $end
$upscope $end
$scope begin gen_b_input[3] $end
$var parameter 3 [" j $end
$upscope $end
$scope begin gen_result_row[0] $end
$var parameter 2 \" i $end
$scope begin gen_result_col[0] $end
$var parameter 2 ]" j $end
$upscope $end
$scope begin gen_result_col[1] $end
$var parameter 2 ^" j $end
$upscope $end
$scope begin gen_result_col[2] $end
$var parameter 3 _" j $end
$upscope $end
$scope begin gen_result_col[3] $end
$var parameter 3 `" j $end
$upscope $end
$upscope $end
$scope begin gen_result_row[1] $end
$var parameter 2 a" i $end
$scope begin gen_result_col[0] $end
$var parameter 2 b" j $end
$upscope $end
$scope begin gen_result_col[1] $end
$var parameter 2 c" j $end
$upscope $end
$scope begin gen_result_col[2] $end
$var parameter 3 d" j $end
$upscope $end
$scope begin gen_result_col[3] $end
$var parameter 3 e" j $end
$upscope $end
$upscope $end
$scope begin gen_result_row[2] $end
$var parameter 3 f" i $end
$scope begin gen_result_col[0] $end
$var parameter 2 g" j $end
$upscope $end
$scope begin gen_result_col[1] $end
$var parameter 2 h" j $end
$upscope $end
$scope begin gen_result_col[2] $end
$var parameter 3 i" j $end
$upscope $end
$scope begin gen_result_col[3] $end
$var parameter 3 j" j $end
$upscope $end
$upscope $end
$scope begin gen_result_row[3] $end
$var parameter 3 k" i $end
$scope begin gen_result_col[0] $end
$var parameter 2 l" j $end
$upscope $end
$scope begin gen_result_col[1] $end
$var parameter 2 m" j $end
$upscope $end
$scope begin gen_result_col[2] $end
$var parameter 3 n" j $end
$upscope $end
$scope begin gen_result_col[3] $end
$var parameter 3 o" j $end
$upscope $end
$upscope $end
$scope begin gen_row[0] $end
$var parameter 2 p" i $end
$scope begin gen_col[0] $end
$var parameter 2 q" j $end
$scope module pe_inst $end
$var wire 8 r" a_in [7:0] $end
$var wire 8 s" b_in [7:0] $end
$var wire 1 M clear_acc $end
$var wire 1 . clk $end
$var wire 1 L en $end
$var wire 1 8 rst_n $end
$var wire 16 t" product [15:0] $end
$var parameter 32 u" ACC_WIDTH $end
$var parameter 32 v" DATA_WIDTH $end
$var reg 8 w" a_out [7:0] $end
$var reg 32 x" acc [31:0] $end
$var reg 8 y" b_out [7:0] $end
$upscope $end
$upscope $end
$scope begin gen_col[1] $end
$var parameter 2 z" j $end
$scope module pe_inst $end
$var wire 8 {" a_in [7:0] $end
$var wire 8 |" b_in [7:0] $end
$var wire 1 M clear_acc $end
$var wire 1 . clk $end
$var wire 1 L en $end
$var wire 1 8 rst_n $end
$var wire 16 }" product [15:0] $end
$var parameter 32 ~" ACC_WIDTH $end
$var parameter 32 !# DATA_WIDTH $end
$var reg 8 "# a_out [7:0] $end
$var reg 32 ## acc [31:0] $end
$var reg 8 $# b_out [7:0] $end
$upscope $end
$upscope $end
$scope begin gen_col[2] $end
$var parameter 3 %# j $end
$scope module pe_inst $end
$var wire 8 &# a_in [7:0] $end
$var wire 8 '# b_in [7:0] $end
$var wire 1 M clear_acc $end
$var wire 1 . clk $end
$var wire 1 L en $end
$var wire 1 8 rst_n $end
$var wire 16 (# product [15:0] $end
$var parameter 32 )# ACC_WIDTH $end
$var parameter 32 *# DATA_WIDTH $end
$var reg 8 +# a_out [7:0] $end
$var reg 32 ,# acc [31:0] $end
$var reg 8 -# b_out [7:0] $end
$upscope $end
$upscope $end
$scope begin gen_col[3] $end
$var parameter 3 .# j $end
$scope module pe_inst $end
$var wire 8 /# a_in [7:0] $end
$var wire 8 0# b_in [7:0] $end
$var wire 1 M clear_acc $end
$var wire 1 . clk $end
$var wire 1 L en $end
$var wire 1 8 rst_n $end
$var wire 16 1# product [15:0] $end
$var parameter 32 2# ACC_WIDTH $end
$var parameter 32 3# DATA_WIDTH $end
$var reg 8 4# a_out [7:0] $end
$var reg 32 5# acc [31:0] $end
$var reg 8 6# b_out [7:0] $end
$upscope $end
$upscope $end
$upscope $end
$scope begin gen_row[1] $end
$var parameter 2 7# i $end
$scope begin gen_col[0] $end
$var parameter 2 8# j $end
$scope module pe_inst $end
$var wire 8 9# a_in [7:0] $end
$var wire 8 :# b_in [7:0] $end
$var wire 1 M clear_acc $end
$var wire 1 . clk $end
$var wire 1 L en $end
$var wire 1 8 rst_n $end
$var wire 16 ;# product [15:0] $end
$var parameter 32 <# ACC_WIDTH $end
$var parameter 32 =# DATA_WIDTH $end
$var reg 8 ># a_out [7:0] $end
$var reg 32 ?# acc [31:0] $end
$var reg 8 @# b_out [7:0] $end
$upscope $end
$upscope $end
$scope begin gen_col[1] $end
$var parameter 2 A# j $end
$scope module pe_inst $end
$var wire 8 B# a_in [7:0] $end
$var wire 8 C# b_in [7:0] $end
$var wire 1 M clear_acc $end
$var wire 1 . clk $end
$var wire 1 L en $end
$var wire 1 8 rst_n $end
$var wire 16 D# product [15:0] $end
$var parameter 32 E# ACC_WIDTH $end
$var parameter 32 F# DATA_WIDTH $end
$var reg 8 G# a_out [7:0] $end
$var reg 32 H# acc [31:0] $end
$var reg 8 I# b_out [7:0] $end
$upscope $end
$upscope $end
$scope begin gen_col[2] $end
$var parameter 3 J# j $end
$scope module pe_inst $end
$var wire 8 K# a_in [7:0] $end
$var wire 8 L# b_in [7:0] $end
$var wire 1 M clear_acc $end
$var wire 1 . clk $end
$var wire 1 L en $end
$var wire 1 8 rst_n $end
$var wire 16 M# product [15:0] $end
$var parameter 32 N# ACC_WIDTH $end
$var parameter 32 O# DATA_WIDTH $end
$var reg 8 P# a_out [7:0] $end
$var reg 32 Q# acc [31:0] $end
$var reg 8 R# b_out [7:0] $end
$upscope $end
$upscope $end
$scope begin gen_col[3] $end
$var parameter 3 S# j $end
$scope module pe_inst $end
$var wire 8 T# a_in [7:0] $end
$var wire 8 U# b_in [7:0] $end
$var wire 1 M clear_acc $end
$var wire 1 . clk $end
$var wire 1 L en $end
$var wire 1 8 rst_n $end
$var wire 16 V# product [15:0] $end
$var parameter 32 W# ACC_WIDTH $end
$var parameter 32 X# DATA_WIDTH $end
$var reg 8 Y# a_out [7:0] $end
$var reg 32 Z# acc [31:0] $end
$var reg 8 [# b_out [7:0] $end
$upscope $end
$upscope $end
$upscope $end
$scope begin gen_row[2] $end
$var parameter 3 \# i $end
$scope begin gen_col[0] $end
$var parameter 2 ]# j $end
$scope module pe_inst $end
$var wire 8 ^# a_in [7:0] $end
$var wire 8 _# b_in [7:0] $end
$var wire 1 M clear_acc $end
$var wire 1 . clk $end
$var wire 1 L en $end
$var wire 1 8 rst_n $end
$var wire 16 `# product [15:0] $end
$var parameter 32 a# ACC_WIDTH $end
$var parameter 32 b# DATA_WIDTH $end
$var reg 8 c# a_out [7:0] $end
$var reg 32 d# acc [31:0] $end
$var reg 8 e# b_out [7:0] $end
$upscope $end
$upscope $end
$scope begin gen_col[1] $end
$var parameter 2 f# j $end
$scope module pe_inst $end
$var wire 8 g# a_in [7:0] $end
$var wire 8 h# b_in [7:0] $end
$var wire 1 M clear_acc $end
$var wire 1 . clk $end
$var wire 1 L en $end
$var wire 1 8 rst_n $end
$var wire 16 i# product [15:0] $end
$var parameter 32 j# ACC_WIDTH $end
$var parameter 32 k# DATA_WIDTH $end
$var reg 8 l# a_out [7:0] $end
$var reg 32 m# acc [31:0] $end
$var reg 8 n# b_out [7:0] $end
$upscope $end
$upscope $end
$scope begin gen_col[2] $end
$var parameter 3 o# j $end
$scope module pe_inst $end
$var wire 8 p# a_in [7:0] $end
$var wire 8 q# b_in [7:0] $end
$var wire 1 M clear_acc $end
$var wire 1 . clk $end
$var wire 1 L en $end
$var wire 1 8 rst_n $end
$var wire 16 r# product [15:0] $end
$var parameter 32 s# ACC_WIDTH $end
$var parameter 32 t# DATA_WIDTH $end
$var reg 8 u# a_out [7:0] $end
$var reg 32 v# acc [31:0] $end
$var reg 8 w# b_out [7:0] $end
$upscope $end
$upscope $end
$scope begin gen_col[3] $end
$var parameter 3 x# j $end
$scope module pe_inst $end
$var wire 8 y# a_in [7:0] $end
$var wire 8 z# b_in [7:0] $end
$var wire 1 M clear_acc $end
$var wire 1 . clk $end
$var wire 1 L en $end
$var wire 1 8 rst_n $end
$var wire 16 {# product [15:0] $end
$var parameter 32 |# ACC_WIDTH $end
$var parameter 32 }# DATA_WIDTH $end
$var reg 8 ~# a_out [7:0] $end
$var reg 32 !$ acc [31:0] $end
$var reg 8 "$ b_out [7:0] $end
$upscope $end
$upscope $end
$upscope $end
$scope begin gen_row[3] $end
$var parameter 3 #$ i $end
$scope begin gen_col[0] $end
$var parameter 2 $$ j $end
$scope module pe_inst $end
$var wire 8 %$ a_in [7:0] $end
$var wire 8 &$ b_in [7:0] $end
$var wire 1 M clear_acc $end
$var wire 1 . clk $end
$var wire 1 L en $end
$var wire 1 8 rst_n $end
$var wire 16 '$ product [15:0] $end
$var parameter 32 ($ ACC_WIDTH $end
$var parameter 32 )$ DATA_WIDTH $end
$var reg 8 *$ a_out [7:0] $end
$var reg 32 +$ acc [31:0] $end
$var reg 8 ,$ b_out [7:0] $end
$upscope $end
$upscope $end
$scope begin gen_col[1] $end
$var parameter 2 -$ j $end
$scope module pe_inst $end
$var wire 8 .$ a_in [7:0] $end
$var wire 8 /$ b_in [7:0] $end
$var wire 1 M clear_acc $end
$var wire 1 . clk $end
$var wire 1 L en $end
$var wire 1 8 rst_n $end
$var wire 16 0$ product [15:0] $end
$var parameter 32 1$ ACC_WIDTH $end
$var parameter 32 2$ DATA_WIDTH $end
$var reg 8 3$ a_out [7:0] $end
$var reg 32 4$ acc [31:0] $end
$var reg 8 5$ b_out [7:0] $end
$upscope $end
$upscope $end
$scope begin gen_col[2] $end
$var parameter 3 6$ j $end
$scope module pe_inst $end
$var wire 8 7$ a_in [7:0] $end
$var wire 8 8$ b_in [7:0] $end
$var wire 1 M clear_acc $end
$var wire 1 . clk $end
$var wire 1 L en $end
$var wire 1 8 rst_n $end
$var wire 16 9$ product [15:0] $end
$var parameter 32 :$ ACC_WIDTH $end
$var parameter 32 ;$ DATA_WIDTH $end
$var reg 8 <$ a_out [7:0] $end
$var reg 32 =$ acc [31:0] $end
$var reg 8 >$ b_out [7:0] $end
$upscope $end
$upscope $end
$scope begin gen_col[3] $end
$var parameter 3 ?$ j $end
$scope module pe_inst $end
$var wire 8 @$ a_in [7:0] $end
$var wire 8 A$ b_in [7:0] $end
$var wire 1 M clear_acc $end
$var wire 1 . clk $end
$var wire 1 L en $end
$var wire 1 8 rst_n $end
$var wire 16 B$ product [15:0] $end
$var parameter 32 C$ ACC_WIDTH $end
$var parameter 32 D$ DATA_WIDTH $end
$var reg 8 E$ a_out [7:0] $end
$var reg 32 F$ acc [31:0] $end
$var reg 8 G$ b_out [7:0] $end
$upscope $end
$upscope $end
$upscope $end
$upscope $end
$upscope $end
$scope task compute_expected $end
$upscope $end
$scope task load_matrix_a $end
$upscope $end
$scope task load_matrix_b $end
$upscope $end
$scope task read_results $end
$upscope $end
$scope task verify $end
$upscope $end
$scope task write_element $end
$var reg 2 H$ col [1:0] $end
$var reg 2 I$ row [1:0] $end
$var reg 1 J$ sel $end
$var reg 8 K$ val [7:0] $end
$upscope $end
$upscope $end
$enddefinitions $end
$comment Show the parameter values. $end
$dumpall
b1000 D$
b100000 C$
b11 ?$
b1000 ;$
b100000 :$
b10 6$
b1000 2$
b100000 1$
b1 -$
b1000 )$
b100000 ($
b0 $$
b11 #$
b1000 }#
b100000 |#
b11 x#
b1000 t#
b100000 s#
b10 o#
b1000 k#
b100000 j#
b1 f#
b1000 b#
b100000 a#
b0 ]#
b10 \#
b1000 X#
b100000 W#
b11 S#
b1000 O#
b100000 N#
b10 J#
b1000 F#
b100000 E#
b1 A#
b1000 =#
b100000 <#
b0 8#
b1 7#
b1000 3#
b100000 2#
b11 .#
b1000 *#
b100000 )#
b10 %#
b1000 !#
b100000 ~"
b1 z"
b1000 v"
b100000 u"
b0 q"
b0 p"
b11 o"
b10 n"
b1 m"
b0 l"
b11 k"
b11 j"
b10 i"
b1 h"
b0 g"
b10 f"
b11 e"
b10 d"
b1 c"
b0 b"
b1 a"
b11 `"
b10 _"
b1 ^"
b0 ]"
b0 \"
b11 ["
b10 Z"
b1 Y"
b0 X"
b11 W"
b10 V"
b1 U"
b0 T"
b1000 S"
b100 R"
b100000 Q"
b100 J"
b100000 I"
b111 @"
b100 ?"
b1000 >"
b100 ="
b111 4"
b100 3"
b1000 2"
b100 1"
b100 y
b1000 x
b111 w
b11 v
b10 u
b1 t
b0 s
b100 r
b110 q
b1001 p
b101 o
b1 n
b10000 m
b111 l
b100 k
b1000 j
b100 i
b100000 h
b10000 f
b1000 e
b100 d
b100000 c
b10000 -
b1000 ,
b1010 +
b100 *
b100000 )
$end
#0
$dumpvars
bx K$
xJ$
bx I$
bx H$
b0 G$
b0 F$
b0 E$
b0 B$
b0 A$
b0 @$
b0 >$
b0 =$
b0 <$
b0 9$
b0 8$
b0 7$
b0 5$
b0 4$
b0 3$
b0 0$
b0 /$
b0 .$
b0 ,$
b0 +$
b0 *$
b0 '$
b0 &$
b0 %$
b0 "$
b0 !$
b0 ~#
b0 {#
b0 z#
b0 y#
b0 w#
b0 v#
b0 u#
b0 r#
b0 q#
b0 p#
b0 n#
b0 m#
b0 l#
b0 i#
b0 h#
b0 g#
b0 e#
b0 d#
b0 c#
b0 `#
b0 _#
b0 ^#
b0 [#
b0 Z#
b0 Y#
b0 V#
b0 U#
b0 T#
b0 R#
b0 Q#
b0 P#
b0 M#
b0 L#
b0 K#
b0 I#
b0 H#
b0 G#
b0 D#
b0 C#
b0 B#
b0 @#
b0 ?#
b0 >#
b0 ;#
b0 :#
b0 9#
b0 6#
b0 5#
b0 4#
b0 1#
b0 0#
b0 /#
b0 -#
b0 ,#
b0 +#
b0 (#
b0 '#
b0 &#
b0 $#
b0 ##
b0 "#
b0 }"
b0 |"
b0 {"
b0 y"
b0 x"
b0 w"
b0 t"
b0 s"
b0 r"
b0 P"
b0 O"
b0 N"
b100 M"
b100 L"
b0 K"
b0 H"
b0 G"
b0 F"
bx E"
0D"
b0 C"
b0 B"
0A"
b0 <"
b0 ;"
b0 :"
bx 9"
08"
b0 7"
b0 6"
05"
b0 0"
b0 /"
b0 ."
b0 -"
b0 ,"
b0 +"
b0 *"
b0 )"
b0 ("
b0 '"
b0 &"
b0 %"
b0 $"
b0 #"
b0 ""
b0 !"
b0 ~
b0 }
b0 |
b0 {
b0 z
b100 g
b0 b
0a
b0 `
0_
b0 ^
b0 ]
0\
b0 [
0Z
b0 Y
0X
0W
b0 V
0U
b0 T
0S
0R
b0 Q
0P
b0 O
0N
0M
0L
b0 K
b0 J
b0 I
b0 H
b0 G
b0 F
b0 E
b100 D
b0 C
b0 B
b0 A
b0 @
b0 ?
bx >
bx =
bx <
bx ;
bx :
09
08
b0 7
06
b0 5
b100 4
b0 3
02
b0 1
00
b0 /
0.
0(
0'
b0 &
b0 %
b0 $
b0 #
0"
0!
$end
#5000
b100 M"
b100 L"
1.
#10000
0.
#15000
b100 M"
b100 L"
1.
#20000
0.
#25000
b100 M"
b100 L"
1.
#30000
0.
#35000
b100 M"
b100 L"
1.
#40000
0.
#45000
b100 M"
b100 L"
1.
#50000
0.
18
#55000
1.
#60000
0.
#65000
1.
#70000
0.
b1 K$
b0 H$
b0 I$
0J$
b100 =
b0 <
b0 ;
#75000
1_
b1 3
b1 C
b1 /"
b1 ;"
10
1.
#80000
0.
#85000
0_
b10 K$
b1 H$
b1 <
00
1.
#90000
0.
#95000
1_
b1 `
b1 ."
b1 [
b1 :"
b10 3
b10 C
b10 /"
b10 ;"
b1 /
b1 A
10
1.
#100000
0.
#105000
0_
b11 K$
b10 H$
b10 <
00
1.
#110000
0.
#115000
1_
b10 `
b10 ."
b10 [
b10 :"
b11 3
b11 C
b11 /"
b11 ;"
b10 /
b10 A
10
1.
#120000
0.
#125000
0_
b100 K$
b11 H$
b11 <
00
1.
#130000
0.
#135000
1_
b11 `
b11 ."
b11 [
b11 :"
b100 3
b100 C
b100 /"
b100 ;"
b11 /
b11 A
10
1.
#140000
0.
#145000
0_
b101 K$
b0 H$
b1 I$
b1 ;
b0 <
00
1.
#150000
0.
#155000
1_
b0 `
b0 ."
b0 [
b0 :"
b1 ^
b1 0"
b1 Y
b1 <"
b101 3
b101 C
b101 /"
b101 ;"
b0 /
b0 A
b1 1
b1 B
10
1.
#160000
0.
#165000
0_
b110 K$
b1 H$
b1 <
00
1.
#170000
0.
#175000
1_
b1 `
b1 ."
b1 [
b1 :"
b110 3
b110 C
b110 /"
b110 ;"
b1 /
b1 A
10
1.
#180000
0.
#185000
0_
b111 K$
b10 H$
b10 <
00
1.
#190000
0.
#195000
1_
b10 `
b10 ."
b10 [
b10 :"
b111 3
b111 C
b111 /"
b111 ;"
b10 /
b10 A
10
1.
#200000
0.
#205000
0_
b1000 K$
b11 H$
b11 <
00
1.
#210000
0.
#215000
1_
b11 `
b11 ."
b11 [
b11 :"
b1000 3
b1000 C
b1000 /"
b1000 ;"
b11 /
b11 A
10
1.
#220000
0.
#225000
0_
b1001 K$
b0 H$
b10 I$
b10 ;
b0 <
00
1.
#230000
0.
#235000
1_
b0 `
b0 ."
b0 [
b0 :"
b10 ^
b10 0"
b10 Y
b10 <"
b1001 3
b1001 C
b1001 /"
b1001 ;"
b0 /
b0 A
b10 1
b10 B
10
1.
#240000
0.
#245000
0_
b1010 K$
b1 H$
b1 <
00
1.
#250000
0.
#255000
1_
b1 `
b1 ."
b1 [
b1 :"
b1010 3
b1010 C
b1010 /"
b1010 ;"
b1 /
b1 A
10
1.
#260000
0.
#265000
0_
b1011 K$
b10 H$
b10 <
00
1.
#270000
0.
#275000
1_
b10 `
b10 ."
b10 [
b10 :"
b1011 3
b1011 C
b1011 /"
b1011 ;"
b10 /
b10 A
10
1.
#280000
0.
#285000
0_
b1100 K$
b11 H$
b11 <
00
1.
#290000
0.
#295000
1_
b11 `
b11 ."
b11 [
b11 :"
b1100 3
b1100 C
b1100 /"
b1100 ;"
b11 /
b11 A
10
1.
#300000
0.
#305000
0_
b1101 K$
b0 H$
b11 I$
b11 ;
b0 <
00
1.
#310000
0.
#315000
1_
b0 `
b0 ."
b0 [
b0 :"
b11 ^
b11 0"
b11 Y
b11 <"
b1101 3
b1101 C
b1101 /"
b1101 ;"
b0 /
b0 A
b11 1
b11 B
10
1.
#320000
0.
#325000
0_
b1110 K$
b1 H$
b1 <
00
1.
#330000
0.
#335000
1_
b1 `
b1 ."
b1 [
b1 :"
b1110 3
b1110 C
b1110 /"
b1110 ;"
b1 /
b1 A
10
1.
#340000
0.
#345000
0_
b1111 K$
b10 H$
b10 <
00
1.
#350000
0.
#355000
1_
b10 `
b10 ."
b10 [
b10 :"
b1111 3
b1111 C
b1111 /"
b1111 ;"
b10 /
b10 A
10
1.
#360000
0.
#365000
0_
b10000 K$
b11 H$
b11 <
00
1.
#370000
0.
#375000
1_
b11 `
b11 ."
b11 [
b11 :"
b10000 3
b10000 C
b10000 /"
b10000 ;"
b11 /
b11 A
10
1.
#380000
0.
#385000
0_
b1 K$
b0 H$
b0 I$
1J$
b0 ;
b0 <
00
1.
#390000
0.
#395000
0_
1Z
b0 `
b0 ."
b0 [
b0 :"
b0 ^
b0 0"
b0 Y
b0 <"
b1 3
b1 C
b1 /"
b1 ;"
b0 /
b0 A
b0 1
b0 B
12
10
1.
#400000
0.
#405000
0Z
b10 K$
b1 H$
b1 <
00
1.
#410000
0.
#415000
1Z
b1 `
b1 ."
b1 [
b1 :"
b10 3
b10 C
b10 /"
b10 ;"
b1 /
b1 A
10
1.
#420000
0.
#425000
0Z
b11 K$
b10 H$
b10 <
00
1.
#430000
0.
#435000
1Z
b10 `
b10 ."
b10 [
b10 :"
b11 3
b11 C
b11 /"
b11 ;"
b10 /
b10 A
10
1.
#440000
0.
#445000
0Z
b100 K$
b11 H$
b11 <
00
1.
#450000
0.
#455000
1Z
b11 `
b11 ."
b11 [
b11 :"
b100 3
b100 C
b100 /"
b100 ;"
b11 /
b11 A
10
1.
#460000
0.
#465000
0Z
b101 K$
b0 H$
b1 I$
b1 ;
b0 <
00
1.
#470000
0.
#475000
1Z
b0 `
b0 ."
b0 [
b0 :"
b1 ^
b1 0"
b1 Y
b1 <"
b101 3
b101 C
b101 /"
b101 ;"
b0 /
b0 A
b1 1
b1 B
10
1.
#480000
0.
#485000
0Z
b110 K$
b1 H$
b1 <
00
1.
#490000
0.
#495000
1Z
b1 `
b1 ."
b1 [
b1 :"
b110 3
b110 C
b110 /"
b110 ;"
b1 /
b1 A
10
1.
#500000
0.
#505000
0Z
b111 K$
b10 H$
b10 <
00
1.
#510000
0.
#515000
1Z
b10 `
b10 ."
b10 [
b10 :"
b111 3
b111 C
b111 /"
b111 ;"
b10 /
b10 A
10
1.
#520000
0.
#525000
0Z
b1000 K$
b11 H$
b11 <
00
1.
#530000
0.
#535000
1Z
b11 `
b11 ."
b11 [
b11 :"
b1000 3
b1000 C
b1000 /"
b1000 ;"
b11 /
b11 A
10
1.
#540000
0.
#545000
0Z
b1001 K$
b0 H$
b10 I$
b10 ;
b0 <
00
1.
#550000
0.
#555000
1Z
b0 `
b0 ."
b0 [
b0 :"
b10 ^
b10 0"
b10 Y
b10 <"
b1001 3
b1001 C
b1001 /"
b1001 ;"
b0 /
b0 A
b10 1
b10 B
10
1.
